Time	Position	Setpoint	Corrected Time
5388266	0	5000	0
5388276	10	5000	10
5388286	38	5000	20
5388296	79	5000	30
5388306	128	5000	40
5388316	183	5000	50
5388326	242	5000	60
5388336	303	5000	70
5388346	367	5000	80
5388356	431	5000	90
5388366	495	5000	100
5388376	559	5000	110
5388386	623	5000	120
5388396	687	5000	130
5388406	751	5000	140
5388416	814	5000	150
5388426	876	5000	160
5388436	937	5000	170
5388446	998	5000	180
5388456	1058	5000	190
5388466	1117	5000	200
5388476	1175	5000	210
5388486	1232	5000	220
5388496	1288	5000	230
5388506	1343	5000	240
5388516	1397	5000	250
5388526	1450	5000	260
5388536	1503	5000	270
5388546	1555	5000	280
5388556	1606	5000	290
5388566	1656	5000	300
5388576	1706	5000	310
5388586	1755	5000	320
5388596	1802	5000	330
5388606	1849	5000	340
5388616	1895	5000	350
5388626	1941	5000	360
5388636	1985	5000	370
5388646	2029	5000	380
5388656	2072	5000	390
5388666	2115	5000	400
5388676	2157	5000	410
5388686	2198	5000	420
5388696	2238	5000	430
5388706	2278	5000	440
5388716	2317	5000	450
5388726	2356	5000	460
5388736	2394	5000	470
5388746	2431	5000	480
5388756	2467	5000	490
5388766	2502	5000	500
5388776	2537	5000	510
5388786	2572	5000	520
5388796	2606	5000	530
5388806	2640	5000	540
5388816	2673	5000	550
5388826	2705	5000	560
5388836	2737	5000	570
5388846	2768	5000	580
5388856	2798	5000	590
5388866	2828	5000	600
5388876	2857	5000	610
5388886	2887	5000	620
5388896	2915	5000	630
5388906	2943	5000	640
5388916	2970	5000	650
5388926	2998	5000	660
5388936	3025	5000	670
5388946	3051	5000	680
5388956	3077	5000	690
5388966	3102	5000	700
5388976	3126	5000	710
5388986	3150	5000	720
5388996	3174	5000	730
5389006	3197	5000	740
5389016	3220	5000	750
5389026	3242	5000	760
5389036	3264	5000	770
5389046	3286	5000	780
5389056	3308	5000	790
5389066	3329	5000	800
5389076	3350	5000	810
5389086	3371	5000	820
5389096	3391	5000	830
5389106	3411	5000	840
5389116	3431	5000	850
5389126	3450	5000	860
5389136	3469	5000	870
5389146	3488	5000	880
5389156	3507	5000	890
5389166	3524	5000	900
5389176	3541	5000	910
5389186	3558	5000	920
5389196	3575	5000	930
5389206	3592	5000	940
5389216	3609	5000	950
5389226	3625	5000	960
5389236	3641	5000	970
5389246	3657	5000	980
5389256	3672	5000	990
5389266	3687	5000	1000
5389276	3701	5000	1010
5389286	3715	5000	1020
5389296	3729	5000	1030
5389306	3743	5000	1040
5389316	3757	5000	1050
5389326	3771	5000	1060
5389336	3784	5000	1070
5389346	3797	5000	1080
5389356	3810	5000	1090
5389366	3823	5000	1100
5389376	3836	5000	1110
5389386	3848	5000	1120
5389396	3861	5000	1130
5389406	3873	5000	1140
5389416	3885	5000	1150
5389426	3896	5000	1160
5389436	3908	5000	1170
5389446	3919	5000	1180
5389456	3930	5000	1190
5389466	3941	5000	1200
5389476	3952	5000	1210
5389486	3962	5000	1220
5389496	3972	5000	1230
5389506	3982	5000	1240
5389516	3992	5000	1250
5389526	4001	5000	1260
5389536	4011	5000	1270
5389546	4021	5000	1280
5389556	4030	5000	1290
5389566	4040	5000	1300
5389576	4048	5000	1310
5389586	4057	5000	1320
5389596	4066	5000	1330
5389606	4075	5000	1340
5389616	4084	5000	1350
5389626	4092	5000	1360
5389636	4100	5000	1370
5389646	4108	5000	1380
5389656	4116	5000	1390
5389666	4124	5000	1400
5389676	4132	5000	1410
5389686	4140	5000	1420
5389696	4147	5000	1430
5389706	4154	5000	1440
5389716	4161	5000	1450
5389726	4168	5000	1460
5389736	4175	5000	1470
5389746	4182	5000	1480
5389756	4188	5000	1490
5389766	4195	5000	1500
5389776	4202	5000	1510
5389786	4208	5000	1520
5389796	4214	5000	1530
5389806	4220	5000	1540
5389816	4226	5000	1550
5389826	4231	5000	1560
5389836	4237	5000	1570
5389846	4243	5000	1580
5389856	4249	5000	1590
5389866	4254	5000	1600
5389876	4260	5000	1610
5389886	4265	5000	1620
5389896	4270	5000	1630
5389906	4276	5000	1640
5389916	4281	5000	1650
5389926	4286	5000	1660
5389936	4291	5000	1670
5389946	4295	5000	1680
5389956	4300	5000	1690
5389966	4304	5000	1700
5389976	4309	5000	1710
5389986	4313	5000	1720
5389996	4318	5000	1730
5390006	4322	5000	1740
5390016	4326	5000	1750
5390026	4331	5000	1760
5390036	4334	5000	1770
5390046	4338	5000	1780
5390056	4342	5000	1790
5390066	4346	5000	1800
5390076	4349	5000	1810
5390086	4353	5000	1820
5390096	4357	5000	1830
5390106	4361	5000	1840
5390116	4364	5000	1850
5390126	4368	5000	1860
5390136	4372	5000	1870
5390146	4375	5000	1880
5390156	4378	5000	1890
5390166	4382	5000	1900
5390176	4385	5000	1910
5390186	4388	5000	1920
5390196	4391	5000	1930
5390206	4394	5000	1940
5390216	4397	5000	1950
5390226	4400	5000	1960
5390236	4403	5000	1970
5390246	4405	5000	1980
5390256	4409	5000	1990
5390266	4411	5000	2000
5390276	4414	5000	2010
5390286	4416	5000	2020
5390296	4419	5000	2030
5390306	4421	5000	2040
5390316	4424	5000	2050
5390326	4426	5000	2060
5390336	4428	5000	2070
5390346	4431	5000	2080
5390356	4433	5000	2090
5390366	4436	5000	2100
5390376	4438	5000	2110
5390386	4440	5000	2120
5390396	4441	5000	2130
5390406	4443	5000	2140
5390416	4445	5000	2150
5390426	4447	5000	2160
5390436	4449	5000	2170
5390446	4452	5000	2180
5390456	4453	5000	2190
5390466	4455	5000	2200
5390476	4456	5000	2210
5390486	4458	5000	2220
5390496	4459	5000	2230
5390506	4461	5000	2240
5390516	4463	5000	2250
5390526	4465	5000	2260
5390536	4467	5000	2270
5390546	4468	5000	2280
5390556	4468	5000	2290
5390566	4469	5000	2300
5390576	4469	5000	2310
5390586	4469	5000	2320
5390596	4469	5000	2330
5390606	4469	5000	2340
5390616	4469	5000	2350
5390626	4469	5000	2360
5390636	4469	5000	2370
5390646	4469	5000	2380
5390656	4469	5000	2390
5390666	4469	5000	2400
5390676	4469	5000	2410
5390686	4469	5000	2420
5390696	4469	5000	2430
5390706	4469	5000	2440
5390716	4469	5000	2450
5390726	4469	5000	2460
5390736	4469	5000	2470
5390746	4469	5000	2480
5390756	4469	5000	2490
5390766	4469	5000	2500
5390776	4469	5000	2510
5390786	4469	5000	2520
5390796	4469	5000	2530
5390806	4469	5000	2540
5390816	4469	5000	2550
5390826	4469	5000	2560
5390836	4469	5000	2570
5390846	4469	5000	2580
5390856	4469	5000	2590
5390866	4469	5000	2600
5390876	4469	5000	2610
5390886	4469	5000	2620
5390896	4469	5000	2630
5390906	4469	5000	2640
5390916	4469	5000	2650
5390926	4469	5000	2660
5390936	4469	5000	2670
5390946	4469	5000	2680
5390956	4469	5000	2690
5390966	4469	5000	2700
5390976	4469	5000	2710
5390986	4469	5000	2720
5390996	4469	5000	2730
5391006	4469	5000	2740
5391016	4469	5000	2750
5391026	4469	5000	2760
5391036	4469	5000	2770
5391046	4469	5000	2780
5391056	4469	5000	2790
5391066	4469	5000	2800
5391076	4469	5000	2810
5391086	4469	5000	2820
5391096	4469	5000	2830
5391106	4469	5000	2840
5391116	4469	5000	2850
5391126	4469	5000	2860
5391136	4469	5000	2870
5391146	4469	5000	2880
5391156	4469	5000	2890
5391166	4469	5000	2900
5391176	4469	5000	2910
5391186	4469	5000	2920
5391196	4469	5000	2930
5391206	4469	5000	2940
5391216	4469	5000	2950
5391226	4469	5000	2960
5391236	4469	5000	2970
5391246	4469	5000	2980
5391256	4469	5000	2990
