6761477 ,  0
6761487 ,  19
6761497 ,  76
6761507 ,  160
6761517 ,  263
6761527 ,  379
6761537 ,  502
6761547 ,  633
6761557 ,  768
6761567 ,  906
6761577 ,  1046
6761587 ,  1186
6761597 ,  1327
6761607 ,  1469
6761617 ,  1611
6761627 ,  1753
6761637 ,  1896
6761647 ,  2039
6761657 ,  2183
6761667 ,  2327
6761677 ,  2471
6761687 ,  2615
6761697 ,  2759
6761707 ,  2902
6761717 ,  3046
6761727 ,  3189
6761737 ,  3330
6761747 ,  3468
6761757 ,  3601
6761767 ,  3729
6761777 ,  3851
6761787 ,  3967
6761797 ,  4075
6761807 ,  4176
6761817 ,  4269
6761827 ,  4354
6761837 ,  4431
6761847 ,  4500
6761857 ,  4561
6761867 ,  4616
6761877 ,  4665
6761887 ,  4708
6761897 ,  4746
6761907 ,  4779
6761917 ,  4808
6761927 ,  4832
6761937 ,  4853
6761947 ,  4871
6761957 ,  4886
6761967 ,  4899
6761977 ,  4910
6761987 ,  4918
6761997 ,  4925
6762007 ,  4930
6762017 ,  4934
6762027 ,  4937
6762037 ,  4937
6762047 ,  4938
6762057 ,  4938
6762067 ,  4938
6762077 ,  4938
6762087 ,  4938
6762097 ,  4938
6762107 ,  4938
6762117 ,  4938
6762127 ,  4938
6762137 ,  4938
6762147 ,  4938
6762157 ,  4938
6762167 ,  4938
6762177 ,  4938
6762187 ,  4938
6762197 ,  4938
6762207 ,  4938
6762217 ,  4938
6762227 ,  4938
6762237 ,  4938
6762247 ,  4938
6762257 ,  4938
6762267 ,  4938
6762277 ,  4938
6762287 ,  4938
6762297 ,  4938
6762307 ,  4938
6762317 ,  4938
6762327 ,  4938
6762337 ,  4938
6762347 ,  4938
6762357 ,  4938
6762367 ,  4938
6762377 ,  4938
6762387 ,  4938
6762397 ,  4938
6762407 ,  4938
6762417 ,  4938
6762427 ,  4938
6762437 ,  4938
6762447 ,  4938
6762457 ,  4938
6762467 ,  4938
6762477 ,  4938
6762487 ,  4938
6762497 ,  4938
6762507 ,  4938
6762517 ,  4938
6762527 ,  4938
6762537 ,  4938
6762547 ,  4938
6762557 ,  4938
6762567 ,  4938
6762577 ,  4938
6762587 ,  4938
6762597 ,  4938
6762607 ,  4938
6762617 ,  4938
6762627 ,  4938
6762637 ,  4938
6762647 ,  4938
6762657 ,  4938
6762667 ,  4938
6762677 ,  4938
6762687 ,  4938
6762697 ,  4938
6762707 ,  4938
6762717 ,  4938
6762727 ,  4938
6762737 ,  4938
6762747 ,  4938
6762757 ,  4938
6762767 ,  4938
6762777 ,  4938
6762787 ,  4938
6762797 ,  4938
6762807 ,  4938
6762817 ,  4938
6762827 ,  4938
6762837 ,  4938
6762847 ,  4938
6762857 ,  4938
6762867 ,  4938
6762877 ,  4938
6762887 ,  4938
6762897 ,  4938
6762907 ,  4938
6762917 ,  4938
6762927 ,  4938
6762937 ,  4938
6762947 ,  4938
6762957 ,  4938
6762967 ,  4938
6762977 ,  4938
6762987 ,  4938
6762997 ,  4938
6763007 ,  4938
6763017 ,  4938
6763027 ,  4938
6763037 ,  4938
6763047 ,  4938
6763057 ,  4938
6763067 ,  4938
6763077 ,  4938
6763087 ,  4938
6763097 ,  4938
6763107 ,  4938
6763117 ,  4938
6763127 ,  4938
6763137 ,  4938
6763147 ,  4938
6763157 ,  4938
6763167 ,  4938
6763177 ,  4938
6763187 ,  4938
6763197 ,  4938
6763207 ,  4938
6763217 ,  4938
6763227 ,  4938
6763237 ,  4938
6763247 ,  4938
6763257 ,  4938
6763267 ,  4938
6763277 ,  4938
6763287 ,  4938
6763297 ,  4938
6763307 ,  4938
6763317 ,  4938
6763327 ,  4938
6763337 ,  4938
6763347 ,  4938
6763357 ,  4938
6763367 ,  4938
6763377 ,  4938
6763387 ,  4938
6763397 ,  4938
6763407 ,  4938
6763417 ,  4938
6763427 ,  4938
6763437 ,  4938
6763447 ,  4938
6763457 ,  4938
6763467 ,  4938
6763477 ,  4938
6763487 ,  4938
6763497 ,  4938
6763507 ,  4938
6763517 ,  4938
6763527 ,  4938
6763537 ,  4938
6763547 ,  4938
6763557 ,  4938
6763567 ,  4938
6763577 ,  4938
6763587 ,  4938
6763597 ,  4938
6763607 ,  4938
6763617 ,  4938
6763627 ,  4938
6763637 ,  4938
6763647 ,  4938
6763657 ,  4938
6763667 ,  4938
6763677 ,  4938
6763687 ,  4938
6763697 ,  4938
6763707 ,  4938
6763717 ,  4938
6763727 ,  4938
6763737 ,  4938
6763747 ,  4938
6763757 ,  4938
6763767 ,  4938
6763777 ,  4938
6763787 ,  4938
6763797 ,  4938
6763807 ,  4938
6763817 ,  4938
6763827 ,  4938
6763837 ,  4938
6763847 ,  4938
6763857 ,  4938
6763867 ,  4938
6763877 ,  4938
6763887 ,  4938
6763897 ,  4938
6763907 ,  4938
6763917 ,  4938
6763927 ,  4938
6763937 ,  4938
6763947 ,  4938
6763957 ,  4938
6763967 ,  4938
6763977 ,  4938
6763987 ,  4938
6763997 ,  4938
6764007 ,  4938
6764017 ,  4938
6764027 ,  4938
6764037 ,  4938
6764047 ,  4938
6764057 ,  4938
6764067 ,  4938
6764077 ,  4938
6764087 ,  4938
6764097 ,  4938
6764107 ,  4938
6764117 ,  4938
6764127 ,  4938
6764137 ,  4938
6764147 ,  4938
6764157 ,  4938
6764167 ,  4938
6764177 ,  4938
6764187 ,  4938
6764197 ,  4938
6764207 ,  4938
6764217 ,  4938
6764227 ,  4938
6764237 ,  4938
6764247 ,  4938
6764257 ,  4938
6764267 ,  4938
6764277 ,  4938
6764287 ,  4938
6764297 ,  4938
6764307 ,  4938
6764317 ,  4938
6764327 ,  4938
6764337 ,  4938
6764347 ,  4938
6764357 ,  4938
6764367 ,  4938
6764377 ,  4938
6764387 ,  4938
6764397 ,  4938
6764407 ,  4938
6764417 ,  4938
6764427 ,  4938
6764437 ,  4938
6764447 ,  4938
6764457 ,  4938
6764467 ,  4938